{
  "project_info": {
    "project_number": "202164598865",
    "firebase_url": "https://testrushrush.firebaseio.com",
    "project_id": "testrushrush",
    "storage_bucket": "testrushrush.appspot.com"
  },
  "client": [
    {
      "client_info": {
        "mobilesdk_app_id": "1:202164598865:android:09a556a88c18e322",
        "android_client_info": {
          "package_name": "com.example.pc.testrushrush"
        }
      },
      "oauth_client": [
        {
          "client_id": "202164598865-gjncbo3set2ger3ocue17vpogbefegjo.apps.googleusercontent.com",
          "client_type": 1,
          "android_info": {
            "package_name": "com.example.pc.testrushrush",
            "certificate_hash": "68a058dd267e54452bcd18525c8eab1041c7d719"
          }
        },
        {
          "client_id": "202164598865-kmagj29q0a3mikr1qf6ek73o82flojs5.apps.googleusercontent.com",
          "client_type": 3
        }
      ],
      "api_key": [
        {
          "current_key": "AIzaSyCr7wfZnvIXFC36Qtp6BMI2W-oOXj4elgE"
        }
      ],
      "services": {
        "analytics_service": {
          "status": 1
        },
        "appinvite_service": {
          "status": 2,
          "other_platform_oauth_client": [
            {
              "client_id": "202164598865-kmagj29q0a3mikr1qf6ek73o82flojs5.apps.googleusercontent.com",
              "client_type": 3
            }
          ]
        },
        "ads_service": {
          "status": 2
        }
      }
    }
  ],
  "configuration_version": "1"
}